Peer assignment
…
The following list shows the 10 most harmful events in the United States organized in descending order first by the total number of Fatalities and then by the number of injuries.

filter(dataset1,health == "Very Harmful") %>% arrange(desc(FATALITIES),desc(INJURIES))

## # A tibble: 21 x 4
##            EVTYPE FATALITIES INJURIES       health
##             <chr>      <dbl>    <dbl>        <chr>
##  1        TORNADO       5633    91346 Very Harmful
##  2 EXCESSIVE HEAT       1903     6525 Very Harmful
##  3    FLASH FLOOD        978     1777 Very Harmful
##  4           HEAT        937     2100 Very Harmful
##  5      LIGHTNING        816     5230 Very Harmful
##  6      TSTM WIND        504     6957 Very Harmful
##  7          FLOOD        470     6789 Very Harmful
##  8    RIP CURRENT        368      232 Very Harmful
##  9      HIGH WIND        248     1137 Very Harmful
## 10      AVALANCHE        224      170 Very Harmful
## # ... with 11 more rows
…
The following list shows the ten most harmful type of events for the properties in the US:

filter(dataset2,property == "Very Harmful")

## # A tibble: 42 x 5
##               EVTYPE   PROPDMG  CROPDMG     TOTALDMG     property
##                <chr>     <dbl>    <dbl>        <dbl>        <chr>
##  1             FLOOD 1.150e+11 3.25e+07 115032500000 Very Harmful
##  2       STORM SURGE 3.130e+10 0.00e+00  31300000000 Very Harmful
##  3 HURRICANE/TYPHOON 1.693e+10 0.00e+00  16930000000 Very Harmful
##  4       STORM SURGE 1.126e+10 0.00e+00  11260000000 Very Harmful
##  5       RIVER FLOOD 5.000e+09 5.00e+09  10000000000 Very Harmful
##  6 HURRICANE/TYPHOON 1.000e+10 0.00e+00  10000000000 Very Harmful
##  7 HURRICANE/TYPHOON 5.880e+09 1.51e+09   7390000000 Very Harmful
##  8 HURRICANE/TYPHOON 7.350e+09 0.00e+00   7350000000 Very Harmful
##  9 HURRICANE/TYPHOON 5.420e+09 2.85e+08   5705000000 Very Harmful
## 10    TROPICAL STORM 5.150e+09 0.00e+00   5150000000 Very Harmful
## # ... with 32 more rows
